{
  "cart": [],
  "favourites": [],
  "allGoods": [
    {
      "title": "Ноутбук Acer Aspire 5 A515-56G-54JD (NX.A1LEU.00A)",
      "price": "19 999",
      "image": "./img/goods/acer-nx.jpeg",
      "id": "1",
      "color": [
        "grey",
        "black"
      ]
    },
    {
      "title": "Ноутбук Asus ROG Strix G15 G512LI-HN058 (90NR0381-M01630)",
      "price": "26 999",
      "image": "./img/goods/asus_90nr.jpeg",
      "id": "2",
      "color": [
        "black"
      ]
    },
    {
      "title": "Ноутбук Apple MacBook Air 13 M1 256GB 2020 (MGND3)",
      "price": "33 999",
      "image": "./img/goods/macbook-air-13-m1.jpeg",
      "id": "3",
      "color": [
        "grey",
        "black",
        "gold"
      ]
    },
    {
      "title": "Ноутбук Asus Laptop X515MA-BR150 (90NB0TH1-M04320)",
      "price": "12 999",
      "image": "./img/goods/asus-90nb.jpeg",
      "id": " 4",
      "color": [
        "black"
      ]
    },
    {
      "title": "Ноутбук Lenovo V145-15 (81MT002CRA)",
      "price": "8 999",
      "image": "./img/goods/lenovo-81.jpeg",
      "id": "5",
      "color": [
        "black"
      ]
    },
    {
      "title": "Ноутбук HP Pavilion Gaming 15-ec1055ur (1U6F8EA)",
      "price": "27 777",
      "image": "./img/goods/hp-pavilion.jpeg",
      "id": "6",
      "color": [
        "darkgrey"
      ]
    },
    {
      "title": "Ноутбук Asus ROG Strix G15 G512LI-HN279 (90NR0381-M06870)",
      "price": "30 999",
      "image": "./img/goods/asus-rog.jpeg",
      "id": "7",
      "color": [
        "grey"
      ]
    },
    {
      "title": "Ноутбук HP Spectre x360 Convertible 13-aw0031ur (1S7G8EA)",
      "price": "34 999",
      "image": "./img/goods/hp-spectre.jpeg",
      "id": "8",
      "color": [
        "silver"
      ]
    },
    {
      "title": "Ноутбук Acer Swift 3 SF314-42-R7TJ",
      "price": "20 999",
      "image": "./img/goods/acer-swift.jpeg",
      "id": "9",
      "color": [
        "pure silver"
      ]
    },
    {
      "title": "Ноутбук Acer Predator Helios 300 PH315-53-59HQ",
      "price": "40 999",
      "image": "./img/goods/acer-predator.jpeg",
      "id": "10",
      "color": [
        "black"
      ]
    },
    {
      "title": "Ноутбук HP Envy Laptop 15-ep0016ur",
      "price": "65 999",
      "image": "./img/goods/hp-envy.png",
      "id": "11",
      "color": [
        "silver"
      ]
    }
  ]
}